module github.com/NVIDIA/mig-parted

go 1.15

require (
	github.com/NVIDIA/go-nvml v0.11.1-0
	github.com/sirupsen/logrus v1.7.0
	github.com/stretchr/testify v1.7.0
	github.com/urfave/cli/v2 v2.3.0
	gitlab.com/nvidia/cloud-native/go-nvlib v0.0.0-20210322130311-2119080eb998
	gopkg.in/yaml.v2 v2.2.8
	sigs.k8s.io/yaml v1.2.0
)
